Get origin destination data from the 2011 Census — get_od • pct
…
#> Delimiter: ","
#> chr  (2): Area of residence, Area of workplace
#> dbl (12): All categories: Method of travel to work, Work mainly at or from h...
#> 
#> ℹ Use `spec()` to retrieve the full column specification for this data.
#> ℹ Specify the column types or set `show_col_types = FALSE` to quiet this message.
#> Rows: 7201 Columns: 6
#> ── Column specification ────────────────────────────────────────────────────────
#> Delimiter: ","
#> chr (2): MSOA11CD, MSOA11NM
#> dbl (4): BNGEAST, BNGNORTH, LONGITUDE, LATITUDE
#> 
#> ℹ Use `spec()` to retrieve the full column specification for this data.
#> ℹ Specify the column types or set `show_col_types = FALSE` to quiet this message.
#> # A tibble: 2,402,201 × 18
#>    geo_code1 geo_code2   all from_home light_rail train   bus  taxi motorbike
#>    <chr>     <chr>     <dbl>     <dbl>      <dbl> <dbl> <dbl> <dbl>     <dbl>
#>  1 E02000001 E02000001  1506         0         73    41    32     9         1
#>  2 E02000001 E02000014     2         0          2     0     0     0         0
#>  3 E02000001 E02000016     3         0          1     0     2     0         0
#>  4 E02000001 E02000025     1         0          0     1     0     0         0
#>  5 E02000001 E02000028     1         0          0     0     0     0         0
#>  6 E02000001 E02000051     1         0          1     0     0     0         0
#>  7 E02000001 E02000053     2         0          2     0     0     0         0
#>  8 E02000001 E02000057     1         0          1     0     0     0         0
#>  9 E02000001 E02000058     1         0          0     0     0     0         0
#> 10 E02000001 E02000059     1         0          0     0     0     1         0
#> # … with 2,402,191 more rows, and 9 more variables: car_driver <dbl>,
#> #   car_passenger <dbl>, bicycle <dbl>, foot <dbl>, other <dbl>,
#> #   geo_name1 <chr>, geo_name2 <chr>, la_1 <chr>, la_2 <chr>
get_od(filename = "wu03uk_v3")
#> No region provided. Returning national OD data.
#> Rows: 110162 Columns: 14
#> ── Column specification ────────────────────────────────────────────────────────
#> Delimiter: ","
#> chr  (2): Area of usual residence, Area of workplace
#> dbl (12): All categories: Method of travel to work, Work mainly at or from h...
#> 
#> ℹ Use `spec()` to retrieve the full column specification for this data.
#> ℹ Specify the column types or set `show_col_types = FALSE` to quiet this message.
#> # A tibble: 110,162 × 14
#>    ``    geo_code2   all from_home light_rail train   bus  taxi motorbike
#>    <chr> <chr>     <dbl>     <dbl>      <dbl> <dbl> <dbl> <dbl>     <dbl>
#>  1 95AA  95AA       9465         0          0    12   243   421        58
#>  2 95AA  95BB        107         0          0     0     1     2         0
#>  3 95AA  95CC         42         0          0     0     1     0         0
#>  4 95AA  95DD       1485         0          0    11    84    13         8
#>  5 95AA  95EE         35         0          0     0     1     0         0
#>  6 95AA  95FF         18         0          0     0     0     0         0
#>  7 95AA  95GG       4538         0          0   165   434    14        23
#>  8 95AA  95HH        139         0          0     1     1     0         0
#>  9 95AA  95II        282         0          0     2    15     0         0
#> 10 95AA  95JJ        108         0          0    15     2     0         0
#> # … with 110,152 more rows, and 5 more variables: car_driver <dbl>,
#> #   car_passenger <dbl>, bicycle <dbl>, foot <dbl>, other <dbl>
…
