Mode names in the Census — mode_names • pct
…
      Propensity to Cycle Tool Training course

  Changelog

    Mode names in the Census

    mode_names.Rd

    And conversion into R-friendly versions

    Examples

mode_names
#> # A tibble: 78 x 3
#>    variable  description                     census_name                        
#>    <chr>     <chr>                           <chr>                              
#>  1 id        Start and end zones             <NA>                               
#>  2 geo_code1 Start or end zone 1, zone code  Area of residence                  
#>  3 geo_code2 Start or end zone 2, zone code  Area of workplace                  
#>  4 geo_name1 Start or end zone 1, zone name  <NA>                               
#>  5 geo_name2 Start or end zone 2, zone name  <NA>                               
#>  6 lad11cd1  Start or end local authoriy 1,… <NA>                               
#>  7 lad11cd2  Start or end local authoriy 2,… <NA>                               
#>  8 lad_name1 Start or end local authoriy 1,… <NA>                               
#>  9 lad_name2 Start or end local authoriy 2,… <NA>                               
#> 10 all       Total no. commuters             All categories: Method of travel t…
#> # … with 68 more rows
…
